{
  "project_info": {
    "project_number": "764506798998",
    "project_id": "blackowl-membership",
    "storage_bucket": "blackowl-membership.appspot.com"
  },
  "client": [
    {
      "client_info": {
        "mobilesdk_app_id": "1:764506798998:android:d3dedf0850ba1092e1bbb7",
        "android_client_info": {
          "package_name": "blackowl.id"
        }
      },
      "oauth_client": [
        {
          "client_id": "764506798998-rn82ngguen157bolucn423r80pfqnf40.apps.googleusercontent.com",
          "client_type": 3
        }
      ],
      "api_key": [
        {
          "current_key": "AIzaSyDZqmWGxYSTPkAfuqyODp-g7XJi9E2d5wA"
        }
      ],
      "services": {
        "appinvite_service": {
          "other_platform_oauth_client": [
            {
              "client_id": "764506798998-rn82ngguen157bolucn423r80pfqnf40.apps.googleusercontent.com",
              "client_type": 3
            }
          ]
        }
      }
    }
  ],
  "configuration_version": "1"
}